{
  "swagger": "2.0",
  "info": {
    "title": "Challenge Chapter 05",
    "description": "Data User Games",
    "version": "1.0.0"
  },
  "host": "localhost:3000",
  "basePath": "/",
  "schemes": [
    "http"
  ],
  "paths": {
    "/usergames/": {
      "get": {
        "description": "List Data User Game",
        "parameters": [
          {
            "name": "id",
            "in": "query",
            "type": "integer"
          },
          {
            "name": "username",
            "in": "query",
            "type": "string"
          }
        ],
        "responses": {
          "200": {
            "description": "OK",
            "schema": {
              "type": "array",
              "items": {
                "type": "object",
                "properties": {
                  "id": {
                    "example": 1
                  },
                  "username": {
                    "example": "atikaindah"
                  }
                }
              }
            }
          },
          "404": {
            "description": "Not Found",
            "schema": {
              "type": "object",
              "properties": {
                "message": {
                  "example": "Not Found"
                }
              }
            }
          }
        }
      },
      "post": {
        "description": "Create Data User Game",
        "parameters": [
          {
            "name": "body",
            "in": "body",
            "schema": {
              "type": "object",
              "properties": {
                "username": {
                  "example": "parkercurtis"
                },
                "password": {
                  "example": "1078"
                }
              }
            }
          }
        ],
        "responses": {
          "200": {
            "description": "OK",
            "schema": {
              "type": "object",
              "properties": {
                "message": {
                  "example": "Successfully Create User"
                }
              }
            }
          },
          "404": {
            "description": "Not Found",
            "schema": {
              "type": "object",
              "properties": {
                "message": {
                  "example": "Not Found"
                }
              }
            }
          }
        }
      }
    },
    "/usergames/biodata": {
      "get": {
        "description": "List Data User Game Biodata",
        "parameters": [
          {
            "name": "id",
            "in": "query",
            "type": "integer"
          },
          {
            "name": "name",
            "in": "query",
            "type": "string"
          },
          {
            "name": "user_game_id",
            "in": "query",
            "type": "integer"
          },
          {
            "name": "gender",
            "in": "query",
            "type": "string"
          },
          {
            "name": "date_of_birth",
            "in": "query",
            "type": "string"
          },
          {
            "name": "age",
            "in": "query",
            "type": "integer"
          }
        ],
        "responses": {
          "200": {
            "description": "OK",
            "schema": {
              "type": "array",
              "items": {
                "type": "object",
                "properties": {
                  "id": {
                    "example": 1
                  },
                  "name": {
                    "example": "Atika Indah"
                  },
                  "user_game_id": {
                    "example": 1
                  },
                  "gender": {
                    "example": "Female"
                  },
                  "date_of_birth": {
                    "example": "2001-05-26"
                  },
                  "age": {
                    "example": 20
                  }
                }
              }
            
            }
          },
          "500": {
            "description": "Internal Server Error",
            "schema": {
              "type": "object",
              "properties": {
                "message": {
                  "example": "Internal Server Error"
                }
              }
            }
          }
        }
      }
    },
    "/usergames/history": {
      "get": {
        "description": "List Data User Game History",
        "parameters": [
          {
            "name": "id",
            "in": "query",
            "type": "integer"
          },
          {
            "name": "user_game_id",
            "in": "query",
            "type": "integer"
          },
          {
            "name": "list_time",
            "in": "query",
            "type": "string"
          },
          {
            "name": "score",
            "in": "query",
            "type": "integer"
          }
        ],
        "responses": {
          "200": {
            "description": "OK",
            "schema": {
              "type": "array",
              "items": {
                "type": "object",
                "properties": {
                  "id": {
                    "example": 1
                  },
                  "user_game_id": {
                    "example": 1
                  },
                  "list_time": {
                    "example": "09:01:10"
                  },
                  "score": {
                    "example": 10921
                  }
                }
              }
            
            }
          },
          "500": {
            "description": "Internal Server Error",
            "schema": {
              "type": "object",
              "properties": {
                "message": {
                  "example": "Internal Server Error"
                }
              }
            }
          }
        }
      }
    },
    "/usergames/{id}": {
      "get": {
        "description": "List Data User Game By Id",
        "parameters": [
          {
            "name": "id",
            "in": "path",
            "required": true,
            "type": "string"
          },
          {
            "name": "username",
            "in": "query",
            "type": "string"
          },
          {
            "name": "password",
            "in": "query",
            "type": "integer"
          }
        ],
        "responses": {
          "200": {
            "description": "OK",
            "schema": {
              "type": "object",
              "properties": {
                "id": {
                  "example": 4
                },
                "username": {
                  "example": "parkerjoseph"
                },
                "password": {
                  "example": 3456
                }
              }
            }
          },
          "500": {
            "description": "Internal Server Error",
            "schema": {
              "type": "object",
              "properties": {
                "message": {
                  "example": "Internal Server Error"
                }
              }
            }
          }
        }
      },
      "put": {
        "description": "Update Data User Game",
        "parameters": [
          {
            "name": "id",
            "in": "path",
            "required": true,
            "type": "string"
          },
          {
            "name": "body",
            "in": "body",
            "schema": {
              "type": "object",
              "properties": {
                "username": {
                  "example": "alineajava"
                },
                "password": {
                  "example": "5624"
                }
              }
            }
          }
        ],
        "responses": {
          "200": {
            "description": "OK"
          },
          "500": {
            "description": "Internal Server Error"
          }
        }
      },
      "delete": {
        "description": "Delete Data User Game",
        "parameters": [
          {
            "name": "id",
            "in": "path",
            "required": true,
            "type": "string"
          }
        ],
        "responses": {
          "200": {
            "description": "OK"
          },
          "500": {
            "description": "Internal Server Error"
          }
        }
      }
    },
    "/api-docs": {
      "get": {
        "description": "",
        "parameters": [],
        "responses": {}
      }
    }
  }
}